<?xml version="1.0" encoding="UTF-8"?>
<grit latest_public_release="0" current_release="1">
  <outputs>
    <output filename="grit/browser_resources.h" type="rc_header">
      <emit emit_type='prepend'></emit>
    </output>
    <output filename="browser_resources.pak" type="data_package" />
  </outputs>
  <release seq="1">
    <structures>
      <if expr="enable_app_list">
        <structure name="IDR_APP_LIST_START_PAGE_CSS" file="resources\app_list\start_page.css" flattenhtml="true" type="chrome_html" />
        <structure name="IDR_APP_LIST_START_PAGE_HTML" file="resources\app_list\start_page.html" flattenhtml="true" type="chrome_html" />
        <structure name="IDR_APP_LIST_START_PAGE_JS" file="resources\app_list\start_page.js" flattenhtml="true" type="chrome_html" />
      </if>
      <if expr="not is_android">
        <if expr="use_vulcanize">
          <then>
            <structure name="IDR_MD_DOWNLOADS_VULCANIZED_HTML" file="resources\md_downloads\vulcanized.html" flattenhtml="true" allowexternalscript="true" type="chrome_html" />
          </then>
          <else>
            <structure name="IDR_MD_DOWNLOADS_DOWNLOADS_HTML" file="resources\md_downloads\downloads.html" flattenhtml="true" allowexternalscript="true" type="chrome_html" />
          </else>
        </if>
      </if>
      <if expr="enable_extensions">
        <structure name="IDR_EXTENSIONS_HTML" file="resources\extensions\extensions.html" flattenhtml="true" type="chrome_html" />
        <structure name="IDR_MD_EXTENSIONS_EXTENSIONS_HTML" file="resources\md_extensions\extensions.html" flattenhtml="true" allowexternalscript="true" type="chrome_html" />
      </if>
      <if expr="chromeos">
        <structure name="IDR_FIRST_RUN_HTML" file="resources\chromeos\first_run\first_run.html" flattenhtml="true" type="chrome_html"/>
        <structure name="IDR_FIRST_RUN_JS" file="resources\chromeos\first_run\first_run.js" flattenhtml="true" type="chrome_html" />
      </if>
      <if expr="not is_android">
        <structure name="IDR_HELP_CSS" file="resources\help\help.css" flattenhtml="true" type="chrome_html" />
        <structure name="IDR_HELP_HTML" file="resources\help\help.html" flattenhtml="true" type="chrome_html" />
        <structure name="IDR_HELP_CONTENT_CSS" file="resources\help\help_content.css" flattenhtml="true" type="chrome_html" />
        <structure name="IDR_HELP_CONTENT_HTML" file="resources\help\help_content.html" flattenhtml="true" type="chrome_html" />
        <structure name="IDR_HELP_PAGE_HTML" file="resources\help\help_page.html" flattenhtml="true" type="chrome_html" />
        <structure name="IDR_HELP_CHANNEL_CHANGE_PAGE_CSS" file="resources\help\channel_change_page.css" flattenhtml="true" type="chrome_html" />
        <structure name="IDR_HELP_CHANNEL_CHANGE_PAGE_HTML" file="resources\help\channel_change_page.html" flattenhtml="true" type="chrome_html" />
        <structure name="IDR_INCOGNITO_TAB_HTML" file="resources\ntp4\incognito_tab.html" flattenhtml="true" type="chrome_html" />
        <structure name="IDR_GUEST_TAB_HTML" file="resources\ntp4\guest_tab.html" flattenhtml="true" type="chrome_html" />
      </if>
      <if expr="chromeos">
        <structure name="IDR_LOCK_HTML" file="resources\chromeos\login\lock.html" flattenhtml="true" type="chrome_html" variables="OOBE=lock" expand_variables="true"/>
        <structure name="IDR_LOCK_JS" file="resources\chromeos\login\lock.js" flattenhtml="true" type="chrome_html" variables="OOBE=lock" expand_variables="true" />
        <structure name="IDR_LOGIN_HTML" file="resources\chromeos\login\login.html" flattenhtml="true" type="chrome_html" variables="OOBE=login" expand_variables="true"/>
        <structure name="IDR_LOGIN_JS" file="resources\chromeos\login\login.js" flattenhtml="true" type="chrome_html" />
      </if>
      <if expr="not is_android">
        <structure name="IDR_NEW_INCOGNITO_TAB_THEME_CSS" file="resources\ntp4\new_incognito_tab_theme.css" flattenhtml="true" type="chrome_html" />
        <structure name="IDR_NEW_TAB_4_HTML" file="resources\ntp4\new_tab.html" flattenhtml="true" type="chrome_html" />
        <structure name="IDR_NEW_TAB_4_THEME_CSS" file="resources\ntp4\new_tab_theme.css" flattenhtml="true" type="chrome_html" />
      </if>
      <if expr="chromeos">
        <structure name="IDR_OOBE_HTML" file="resources\chromeos\login\oobe.html" flattenhtml="true" type="chrome_html" variables="OOBE=oobe" expand_variables="true"/>
        <structure name="IDR_OOBE_JS" file="resources\chromeos\login\oobe.js" flattenhtml="true" type="chrome_html" />
        <structure name="IDR_OOBE_ENROLLMENT_HTML" file="resources\chromeos\login\oobe_screen_oauth_enrollment.html" flattenhtml="true" type="chrome_html" />
        <structure name="IDR_OOBE_ENROLLMENT_CSS" file="resources\chromeos\login\oobe_screen_oauth_enrollment.css" flattenhtml="true" type="chrome_html" />
        <structure name="IDR_OOBE_ENROLLMENT_JS" file="resources\chromeos\login\oobe_screen_oauth_enrollment.js" flattenhtml="true" type="chrome_html" />
        <structure name="IDR_KEYBOARD_UTILS_JS" file="resources\chromeos\keyboard\keyboard_utils.js" flattenhtml="true" type="chrome_html" />
        <structure name="IDR_CUSTOM_ELEMENTS_OOBE_HTML" file="resources\chromeos\login\custom_elements_oobe.html" flattenhtml="true" type="chrome_html" />
        <structure name="IDR_CUSTOM_ELEMENTS_OOBE_JS" file="resources\chromeos\login\custom_elements_oobe.js" flattenhtml="true" type="chrome_html" />
        <structure name="IDR_CUSTOM_ELEMENTS_LOCK_HTML" file="resources\chromeos\login\custom_elements_lock.html" flattenhtml="true" type="chrome_html" />
        <structure name="IDR_CUSTOM_ELEMENTS_LOCK_JS" file="resources\chromeos\login\custom_elements_lock.js" flattenhtml="true" type="chrome_html" />
        <structure name="IDR_CUSTOM_ELEMENTS_LOGIN_HTML" file="resources\chromeos\login\custom_elements_login.html" flattenhtml="true" type="chrome_html" />
        <structure name="IDR_CUSTOM_ELEMENTS_LOGIN_JS" file="resources\chromeos\login\custom_elements_login.js" flattenhtml="true" type="chrome_html" />
        <structure name="IDR_CUSTOM_ELEMENTS_PIN_KEYBOARD_HTML" file="resources\chromeos\quick_unlock\pin_keyboard.html" flattenhtml="true" allowexternalscript="true" type="chrome_html" />
        <structure name="IDR_CUSTOM_ELEMENTS_PIN_KEYBOARD_JS" file="resources\chromeos\quick_unlock\pin_keyboard.js" type="chrome_html" />
      </if>
      <structure name="IDR_READER_OUT_OF_DATE_HTML" file="resources\reader_out_of_date.html" flattenhtml="true" type="chrome_html" />
    </structures>
    <includes>
      <if expr="is_win">
        <include name="IDR_ABOUT_CONFLICTS_HTML" file="resources\about_conflicts.html" flattenhtml="true" allowexternalscript="true" type="BINDATA" />
        <include name="IDR_ABOUT_CONFLICTS_JS" file="resources\about_conflicts.js" type="BINDATA" />
      </if>
      <if expr="enable_plugins">
        <include name="IDR_ABOUT_FLASH_HTML" file="resources\about_flash.html" flattenhtml="true" allowexternalscript="true" type="BINDATA" />
        <include name="IDR_ABOUT_FLASH_JS" file="resources\about_flash.js" type="BINDATA" />
      </if>
      <if expr="not disable_nacl">
        <include name="IDR_ABOUT_NACL_HTML" file="resources\about_nacl.html" flattenhtml="true" allowexternalscript="true" type="BINDATA" />
        <include name="IDR_ABOUT_NACL_CSS" file="resources\about_nacl.css" flattenhtml="true" type="chrome_html" />
        <include name="IDR_ABOUT_NACL_JS" file="resources\about_nacl.js" type="BINDATA" />
      </if>
      <if expr="not is_android">
        <include name="IDR_ABOUT_SYS_HTML" file="resources\about_sys\about_sys.html" flattenhtml="true" type="BINDATA" />
      </if>
      <include name="IDR_AD_NETWORK_HASHES" file="resources\ad_networks.dat" type="BINDATA" />
      <include name="IDR_BOOKMARKS_MANIFEST" file="resources\bookmark_manager\manifest.json" type="BINDATA" />
      <if expr="is_posix and not is_macosx and not is_ios">
        <include name="IDR_CERTIFICATE_VIEWER_HTML" file="resources\certificate_viewer.html" type="BINDATA" />
        <include name="IDR_CERTIFICATE_VIEWER_JS" file="resources\certificate_viewer.js" type="BINDATA" />
        <include name="IDR_CERTIFICATE_VIEWER_CSS" file="resources\certificate_viewer.css" type="BINDATA" />
      </if>
      <if expr="enable_app_list">
        <include name="IDR_CHROME_APP_MANIFEST" file="resources\chrome_app\manifest.json" type="BINDATA" />
      </if>
      <if expr="not is_android and not is_ios">
        <include name="IDR_COPRESENCE_CSS" file="resources\copresence.css" type="BINDATA" />
        <include name="IDR_COPRESENCE_HTML" file="resources\copresence.html" type="BINDATA" />
        <include name="IDR_COPRESENCE_JS" file="resources\copresence.js" type="BINDATA" />
      </if>
      <if expr="enable_printing">
        <include name="IDR_CLOUDPRINT_MANIFEST" file="resources\cloud_print_app\manifest.json" type="BINDATA" />
      </if>
      <if expr="not is_ios">
        <include name="IDR_DEVTOOLS_DISCOVERY_PAGE_HTML" file="devtools\frontend\devtools_discovery_page.html" type="BINDATA"/>
      </if>
      <include name="IDR_DOMAIN_RELIABILITY_INTERNALS_HTML" file="resources\domain_reliability_internals.html" compress="gzip" type="BINDATA" />
      <include name="IDR_DOMAIN_RELIABILITY_INTERNALS_CSS" file="resources\domain_reliability_internals.css" compress="gzip" type="BINDATA" />
      <include name="IDR_DOMAIN_RELIABILITY_INTERNALS_JS" file="resources\domain_reliability_internals.js" compress="gzip" type="BINDATA" />
      <include name="IDR_DOWNLOAD_FILE_TYPES_PB" file="${root_gen_dir}\chrome\browser\resources\safe_browsing\download_file_types.pb" use_base_dir="false" type="BINDATA" />
      <if expr="not is_android">
        <include name="IDR_MD_DOWNLOADS_1X_INCOGNITO_MARKER_PNG" file="resources\md_downloads\1x\incognito_marker.png" type="BINDATA" />
        <include name="IDR_MD_DOWNLOADS_2X_INCOGNITO_MARKER_PNG" file="resources\md_downloads\2x\incognito_marker.png" type="BINDATA" />
        <include name="IDR_MD_DOWNLOADS_1X_NO_DOWNLOADS_PNG" file="resources\md_downloads\1x\no_downloads.png" type="BINDATA" />
        <include name="IDR_MD_DOWNLOADS_2X_NO_DOWNLOADS_PNG" file="resources\md_downloads\2x\no_downloads.png" type="BINDATA" />
        <if expr="use_vulcanize">
          <then>
            <include name="IDR_MD_DOWNLOADS_CRISPER_JS" file="resources\md_downloads\crisper.js" flattenhtml="true" type="BINDATA" />
          </then>
          <else>
            <include name="IDR_MD_DOWNLOADS_ACTION_SERVICE_HTML" file="resources\md_downloads\action_service.html" type="BINDATA" />
            <include name="IDR_MD_DOWNLOADS_ACTION_SERVICE_JS" file="resources\md_downloads\action_service.js" type="BINDATA" />
            <include name="IDR_MD_DOWNLOADS_CONSTANTS_HTML" file="resources\md_downloads\constants.html" type="BINDATA" />
            <include name="IDR_MD_DOWNLOADS_CONSTANTS_JS" file="resources\md_downloads\constants.js" type="BINDATA" />
            <include name="IDR_MD_DOWNLOADS_DOWNLOADS_JS" file="resources\md_downloads\downloads.js" type="BINDATA" />
            <include name="IDR_MD_DOWNLOADS_I18N_SETUP_HTML" file="resources\md_downloads\i18n_setup.html" type="BINDATA" />
            <include name="IDR_MD_DOWNLOADS_ITEM_CSS" file="resources\md_downloads\item.css" type="BINDATA" flattenhtml="true" />
            <include name="IDR_MD_DOWNLOADS_ITEM_HTML" file="resources\md_downloads\item.html" type="BINDATA" />
            <include name="IDR_MD_DOWNLOADS_ITEM_JS" file="resources\md_downloads\item.js" type="BINDATA" />
            <include name="IDR_MD_DOWNLOADS_MANAGER_CSS" file="resources\md_downloads\manager.css" type="BINDATA" flattenhtml="true" />
            <include name="IDR_MD_DOWNLOADS_MANAGER_HTML" file="resources\md_downloads\manager.html" type="BINDATA" />
            <include name="IDR_MD_DOWNLOADS_MANAGER_JS" file="resources\md_downloads\manager.js" type="BINDATA" />
            <include name="IDR_MD_DOWNLOADS_SHARED_STYLE_CSS" file="resources\md_downloads\shared_style.css" type="BINDATA" />
            <include name="IDR_MD_DOWNLOADS_TOOLBAR_CSS" file="resources\md_downloads\toolbar.css" type="BINDATA" />
            <include name="IDR_MD_DOWNLOADS_TOOLBAR_HTML" file="resources\md_downloads\toolbar.html" type="BINDATA" />
            <include name="IDR_MD_DOWNLOADS_TOOLBAR_JS" file="resources\md_downloads\toolbar.js" type="BINDATA" />
          </else>
        </if>
      </if>
      <if expr="enable_extensions">
        <include name="IDR_EXTENSION_COMMAND_LIST_JS" file="resources\extensions\extension_command_list.js" flattenhtml="true" type="BINDATA" />
        <include name="IDR_EXTENSION_LIST_JS" file="resources\extensions\extension_list.js" flattenhtml="true" type="BINDATA" />
        <include name="IDR_EXTENSIONS_JS" file="resources\extensions\extensions.js" flattenhtml="true" type="BINDATA" />
        <include name="IDR_MD_EXTENSIONS_EXTENSIONS_JS" file="resources\md_extensions\extensions.js" type="BINDATA" />
        <include name="IDR_MD_EXTENSIONS_ANIMATION_HELPER_HTML" file="resources\md_extensions\animation_helper.html" type="BINDATA" />
        <include name="IDR_MD_EXTENSIONS_ANIMATION_HELPER_JS" file="resources\md_extensions\animation_helper.js" type="BINDATA" />
        <include name="IDR_MD_EXTENSIONS_DETAIL_VIEW_HTML" file="resources\md_extensions\detail_view.html" type="BINDATA" />
        <include name="IDR_MD_EXTENSIONS_DETAIL_VIEW_JS" file="resources\md_extensions\detail_view.js" type="BINDATA" />
        <include name="IDR_MD_EXTENSIONS_KEYBOARD_SHORTCUTS_HTML" file="resources\md_extensions\keyboard_shortcuts.html" type="BINDATA" />
        <include name="IDR_MD_EXTENSIONS_KEYBOARD_SHORTCUTS_JS" file="resources\md_extensions\keyboard_shortcuts.js" type="BINDATA" />
        <include name="IDR_MD_EXTENSIONS_MANAGER_CSS" file="resources\md_extensions\manager.css" type="BINDATA" />
        <include name="IDR_MD_EXTENSIONS_MANAGER_HTML" file="resources\md_extensions\manager.html" type="BINDATA" />
        <include name="IDR_MD_EXTENSIONS_MANAGER_JS" file="resources\md_extensions\manager.js" type="BINDATA" />
        <include name="IDR_MD_EXTENSIONS_ICONS_HTML" file="resources\md_extensions\icons.html" type="BINDATA" />
        <include name="IDR_MD_EXTENSIONS_ITEM_CSS" file="resources\md_extensions\item.css" type="BINDATA" />
        <include name="IDR_MD_EXTENSIONS_ITEM_HTML" file="resources\md_extensions\item.html" type="BINDATA" />
        <include name="IDR_MD_EXTENSIONS_ITEM_JS" file="resources\md_extensions\item.js" type="BINDATA" />
        <include name="IDR_MD_EXTENSIONS_ITEM_LIST_CSS" file="resources\md_extensions\item_list.css" type="BINDATA" />
        <include name="IDR_MD_EXTENSIONS_ITEM_LIST_HTML" file="resources\md_extensions\item_list.html" type="BINDATA" />
        <include name="IDR_MD_EXTENSIONS_ITEM_LIST_JS" file="resources\md_extensions\item_list.js" type="BINDATA" />
        <include name="IDR_MD_EXTENSIONS_SERVICE_HTML" file="resources\md_extensions\service.html" type="BINDATA" />
        <include name="IDR_MD_EXTENSIONS_SERVICE_JS" file="resources\md_extensions\service.js" type="BINDATA" />
        <include name="IDR_MD_EXTENSIONS_SIDEBAR_CSS" file="resources\md_extensions\sidebar.css" type="BINDATA" />
        <include name="IDR_MD_EXTENSIONS_SIDEBAR_HTML" file="resources\md_extensions\sidebar.html" type="BINDATA" />
        <include name="IDR_MD_EXTENSIONS_SIDEBAR_JS" file="resources\md_extensions\sidebar.js" type="BINDATA" />
        <include name="IDR_MD_EXTENSIONS_TOOLBAR_CSS" file="resources\md_extensions\toolbar.css" type="BINDATA" />
        <include name="IDR_MD_EXTENSIONS_TOOLBAR_HTML" file="resources\md_extensions\toolbar.html" type="BINDATA" />
        <include name="IDR_MD_EXTENSIONS_TOOLBAR_JS" file="resources\md_extensions\toolbar.js" type="BINDATA" />
        <include name="IDR_MD_EXTENSIONS_STRINGS_HTML" file="resources\md_extensions\strings.html" type="BINDATA" />
      </if>
      <include name="IDR_FEEDBACK_MANIFEST" file="resources\feedback\manifest.json" type="BINDATA" />
      <if expr="not is_android">
        <include name="IDR_MD_FEEDBACK_FEEDBACK_HTML" file="resources\md_feedback\feedback.html" type="BINDATA" />
        <include name="IDR_MD_FEEDBACK_FEEDBACK_CONTAINER_HTML" file="resources\md_feedback\feedback_container.html" type="BINDATA" />
        <include name="IDR_MD_FEEDBACK_FEEDBACK_CONTAINER_JS" file="resources\md_feedback\feedback_container.js" type="BINDATA" />
      </if>
      <if expr="is_android">
        <include name="IDR_OFFLINE_INTERNALS_HTML" file="resources\offline_pages\offline_internals.html" flattenhtml="true" allowexternalscript="true" type="BINDATA" />
        <include name="IDR_OFFLINE_INTERNALS_CSS" file="resources\offline_pages\offline_internals.css" type="BINDATA" />
        <include name="IDR_OFFLINE_INTERNALS_JS" file="resources\offline_pages\offline_internals.js" type="BINDATA" />
        <include name="IDR_POPULAR_SITES_INTERNALS_HTML" file="resources\popular_sites_internals.html" allowexternalscript="true" compress="gzip" type="BINDATA" />
        <include name="IDR_POPULAR_SITES_INTERNALS_CSS" file="resources\popular_sites_internals.css" compress="gzip" type="BINDATA" />
        <include name="IDR_POPULAR_SITES_INTERNALS_JS" file="resources\popular_sites_internals.js" compress="gzip" type="BINDATA" />
        <include name="IDR_SNIPPETS_INTERNALS_HTML" file="resources\snippets_internals.html" allowexternalscript="true" compress="gzip" type="BINDATA" />
        <include name="IDR_SNIPPETS_INTERNALS_CSS" file="resources\snippets_internals.css" compress="gzip" type="BINDATA" />
        <include name="IDR_SNIPPETS_INTERNALS_JS" file="resources\snippets_internals.js" compress="gzip" type="BINDATA" />
      </if>
      <include name="IDR_SUPERVISED_USER_INTERNALS_HTML" file="resources\supervised_user_internals.html" allowexternalscript="true" compress="gzip" type="BINDATA" />
      <include name="IDR_SUPERVISED_USER_INTERNALS_CSS" file="resources\supervised_user_internals.css" compress="gzip" type="BINDATA" />
      <include name="IDR_SUPERVISED_USER_INTERNALS_JS" file="resources\supervised_user_internals.js" compress="gzip" type="BINDATA" />
      <if expr="_google_chrome or enable_hangout_services_extension">
        <!-- Hangout Services extension, included in Google Chrome builds only. -->
        <include name="IDR_HANGOUT_SERVICES_MANIFEST" file="resources\hangout_services\manifest.json" type="BINDATA" />
      </if>
      <include name="IDR_HOTWORD_MANIFEST" file="resources\hotword\manifest.json" type="BINDATA" />
      <include name="IDR_HOTWORD_AUDIO_VERIFICATION_MANIFEST" file="resources\hotword_audio_verification\manifest.json" type="BINDATA" />
      <if expr="not is_android">
        <include name="IDR_HELP_JS" file="resources\help\help.js" flattenhtml="true" type="BINDATA" />
        <include name="IDR_HELP_PAGE_JS" file="resources\help\help_page.js" flattenhtml="true" type="BINDATA" />
        <include name="IDR_CHANNEL_CHANGE_PAGE_JS" file="resources\help\channel_change_page.js" flattenhtml="true" type="BINDATA" />
      </if>
      <include name="IDR_HISTORY_HTML" file="resources\history\history.html" flattenhtml="true" allowexternalscript="true" type="BINDATA" />
      <include name="IDR_HISTORY_JS" file="resources\history\history.js" flattenhtml="true" type="BINDATA" />

      <if expr="not is_android and not is_ios">
        <include name="IDR_MD_HISTORY_APP_HTML" file="resources\md_history\app.html" type="BINDATA" />
        <include name="IDR_MD_HISTORY_APP_JS" file="resources\md_history\app.js" type="BINDATA" />
        <include name="IDR_MD_HISTORY_BROWSER_SERVICE_HTML" file="resources\md_history\browser_service.html" type="BINDATA" />
        <include name="IDR_MD_HISTORY_BROWSER_SERVICE_JS" file="resources\md_history\browser_service.js" type="BINDATA" />
        <include name="IDR_MD_HISTORY_CONSTANTS_HTML" file="resources\md_history\constants.html" type="BINDATA" />
        <include name="IDR_MD_HISTORY_CONSTANTS_JS" file="resources\md_history\constants.js" type="BINDATA" />
        <include name="IDR_MD_HISTORY_GROUPED_LIST_HTML" file="resources\md_history\grouped_list.html" type="BINDATA" />
        <include name="IDR_MD_HISTORY_GROUPED_LIST_JS" file="resources\md_history\grouped_list.js" type="BINDATA" />
        <include name="IDR_MD_HISTORY_HISTORY_HTML" file="resources\md_history\history.html" type="BINDATA" />
        <include name="IDR_MD_HISTORY_HISTORY_ITEM_HTML" file="resources\md_history\history_item.html" type="BINDATA" />
        <include name="IDR_MD_HISTORY_HISTORY_ITEM_JS" file="resources\md_history\history_item.js" type="BINDATA" />
        <include name="IDR_MD_HISTORY_HISTORY_JS" file="resources\md_history\history.js" type="BINDATA" />
        <include name="IDR_MD_HISTORY_HISTORY_LIST_HTML" file="resources\md_history\history_list.html" type="BINDATA" />
        <include name="IDR_MD_HISTORY_HISTORY_LIST_JS" file="resources\md_history\history_list.js" type="BINDATA" />
        <include name="IDR_MD_HISTORY_HISTORY_TOOLBAR_HTML" file="resources\md_history\history_toolbar.html" type="BINDATA" />
        <include name="IDR_MD_HISTORY_HISTORY_TOOLBAR_JS" file="resources\md_history\history_toolbar.js" type="BINDATA" />
        <include name="IDR_MD_HISTORY_ICONS_HTML" file="resources\md_history\icons.html" type="BINDATA" />
        <include name="IDR_MD_HISTORY_SHARED_STYLE_HTML" file="resources\md_history\shared_style.html" type="BINDATA" />
        <include name="IDR_MD_HISTORY_SIDE_BAR_HTML" file="resources\md_history\side_bar.html" type="BINDATA" />
        <include name="IDR_MD_HISTORY_SIDE_BAR_JS" file="resources\md_history\side_bar.js" type="BINDATA" />
        <include name="IDR_MD_HISTORY_SYNCED_DEVICE_CARD_HTML" file="resources\md_history\synced_device_card.html" type="BINDATA" />
        <include name="IDR_MD_HISTORY_SYNCED_DEVICE_CARD_JS" file="resources\md_history\synced_device_card.js" type="BINDATA" />
        <include name="IDR_MD_HISTORY_SYNCED_DEVICE_MANAGER_HTML" file="resources\md_history\synced_device_manager.html" type="BINDATA" />
        <include name="IDR_MD_HISTORY_SYNCED_DEVICE_MANAGER_JS" file="resources\md_history\synced_device_manager.js" type="BINDATA" />
      </if>

      <include name="IDR_OTHER_DEVICES_JS" file="resources\history\other_devices.js" flattenhtml="true" type="BINDATA" />
      <include name="IDR_IDENTITY_API_SCOPE_APPROVAL_MANIFEST" file="resources\identity_scope_approval_dialog\manifest.json" type="BINDATA" />
      <include name="IDR_NEW_INLINE_LOGIN_HTML" file="resources\inline_login\new_inline_login.html" flattenhtml="true" allowexternalscript="true" type="BINDATA" />
      <include name="IDR_INLINE_LOGIN_HTML" file="resources\inline_login\inline_login.html" flattenhtml="true" allowexternalscript="true" type="BINDATA" />
      <include name="IDR_INLINE_LOGIN_CSS" file="resources\inline_login\inline_login.css" flattenhtml="true" type="BINDATA" />
      <include name="IDR_INLINE_LOGIN_JS" file="resources\inline_login\inline_login.js" flattenhtml="true" type="BINDATA" />
      <include name="IDR_GAIA_AUTH_AUTHENTICATOR_JS" file="resources\gaia_auth_host\authenticator.js" flattenhtml="true" type="BINDATA" />
      <include name="IDR_GAIA_AUTH_HOST_JS" file="resources\gaia_auth_host\gaia_auth_host.js" flattenhtml="true" type="BINDATA" />
      <include name="IDR_INSPECT_CSS" file="resources\inspect\inspect.css" flattenhtml="true" type="BINDATA" />
      <include name="IDR_INSPECT_HTML" file="resources\inspect\inspect.html" flattenhtml="true" allowexternalscript="true" type="BINDATA" />
      <include name="IDR_INSPECT_JS" file="resources\inspect\inspect.js" flattenhtml="true" type="BINDATA" />
      <include name="IDR_INSTANT_CSS" file="resources\instant\instant.css" flattenhtml="true" type="BINDATA" />
      <include name="IDR_INSTANT_HTML" file="resources\instant\instant.html" flattenhtml="true" allowexternalscript="true" type="BINDATA" />
      <include name="IDR_INSTANT_JS" file="resources\instant\instant.js" flattenhtml="true" type="BINDATA" />
      <include name="IDR_NETWORK_SPEECH_SYNTHESIS_MANIFEST" file="resources\network_speech_synthesis\manifest.json" type="BINDATA" />
      <include name="IDR_PREDICTORS_HTML" file="resources\predictors\predictors.html" flattenhtml="true" allowexternalscript="true" type="BINDATA" />
      <include name="IDR_PREDICTORS_JS" file="resources\predictors\predictors.js" flattenhtml="true" type="BINDATA" />
      <if expr="not is_android">
        <include name="IDR_NOTIFICATION_1LINE_HTML" file="resources\notification_1line.html" flattenhtml="true" type="BINDATA" />
        <include name="IDR_NOTIFICATION_2LINE_HTML" file="resources\notification_2line.html" flattenhtml="true" type="BINDATA" />
        <include name="IDR_NOTIFICATION_ICON_HTML" file="resources\notification_icon.html" type="BINDATA" />
      </if>

      <if expr="enable_service_discovery">
        <include name="IDR_LOCAL_DISCOVERY_HTML" file="resources\local_discovery\local_discovery.html" flattenhtml="true" allowexternalscript="true" type="BINDATA" />
        <include name="IDR_LOCAL_DISCOVERY_CSS" file="resources\local_discovery\local_discovery.css" type="BINDATA" />
        <include name="IDR_LOCAL_DISCOVERY_JS" file="resources\local_discovery\local_discovery.js" flattenhtml="true" type="BINDATA" />
        <include name="IDR_LOCAL_DISCOVERY_DEVICE_PNG" file="resources\local_discovery\device.png" type="BINDATA" />
        <include name="IDR_LOCAL_DISCOVERY_PRINTER_PNG" file="resources\local_discovery\printer.png" type="BINDATA" />
      </if>

      <include name="IDR_INSTANT_IFRAME_VALIDATION_JS" file="resources\local_ntp\instant_iframe_validation.js" type="BINDATA" />
      <include name="IDR_LOCAL_NTP_HTML" file="resources\local_ntp\local_ntp.html" flattenhtml="true" allowexternalscript="true" type="BINDATA" />
      <include name="IDR_LOCAL_NTP_CSS" file="resources\local_ntp\local_ntp.css" flattenhtml="true" type="BINDATA" />
      <include name="IDR_LOCAL_NTP_JS" file="resources\local_ntp\local_ntp.js" flattenhtml="true" type="BINDATA" />
      <include name="IDR_LOCAL_NTP_UTIL_JS" file="resources\local_ntp\local_ntp_util.js" flattenhtml="true" type="BINDATA" />
      <include name="IDR_LOCAL_STATE_HTML" file="resources\local_state\local_state.html" flattenhtml="true" allowexternalscript="true" type="BINDATA" />
      <include name="IDR_LOCAL_STATE_JS" file="resources\local_state\local_state.js" flattenhtml="true" allowexternalscript="true" type="BINDATA" />
      <include name="IDR_MOST_VISITED_IFRAME_CSS" file="resources\local_ntp\most_visited_iframe.css" type="BINDATA" />
      <include name="IDR_MOST_VISITED_TITLE_HTML" file="resources\local_ntp\most_visited_title.html" type="BINDATA" />
      <include name="IDR_MOST_VISITED_TITLE_CSS" file="resources\local_ntp\most_visited_title.css" type="BINDATA" />
      <include name="IDR_MOST_VISITED_TITLE_JS" file="resources\local_ntp\most_visited_title.js" type="BINDATA" />
      <include name="IDR_MOST_VISITED_THUMBNAIL_HTML" file="resources\local_ntp\most_visited_thumbnail.html" type="BINDATA" />
      <include name="IDR_MOST_VISITED_THUMBNAIL_CSS" file="resources\local_ntp\most_visited_thumbnail.css" type="BINDATA" />
      <include name="IDR_MOST_VISITED_THUMBNAIL_JS" file="resources\local_ntp\most_visited_thumbnail.js" type="BINDATA" />
      <include name="IDR_MOST_VISITED_SINGLE_HTML" file="resources\local_ntp\most_visited_single.html" type="BINDATA" />
      <include name="IDR_MOST_VISITED_SINGLE_CSS" file="resources\local_ntp\most_visited_single.css" type="BINDATA" />
      <include name="IDR_MOST_VISITED_SINGLE_JS" file="resources\local_ntp\most_visited_single.js" type="BINDATA" />
      <include name="IDR_MOST_VISITED_UTIL_JS" file="resources\local_ntp\most_visited_util.js" type="BINDATA" flattenhtml="true" />
      <include name="IDR_OMNIBOX_HTML" file="resources\omnibox\omnibox.html" flattenhtml="true" allowexternalscript="true" type="BINDATA" />
      <include name="IDR_OMNIBOX_CSS" file="resources\omnibox\omnibox.css" type="BINDATA" />
      <include name="IDR_OMNIBOX_JS" file="resources\omnibox\omnibox.js" type="BINDATA" />
      <include name="IDR_OMNIBOX_MOJO_JS" file="${root_gen_dir}\chrome\browser\ui\webui\omnibox\omnibox.mojom.js" use_base_dir="false" type="BINDATA"/>
      <if expr="enable_plugins">
        <include name="IDR_PLUGINS_HTML" file="resources\plugins.html" flattenhtml="true" allowexternalscript="true" type="BINDATA" />
        <include name="IDR_PLUGINS_JS" file="resources\plugins.js" type="BINDATA" />
        <include name="IDR_PLUGINS_MOJO_JS" file="${root_gen_dir}\chrome\browser\ui\webui\plugins\plugins.mojom.js" use_base_dir="false" type="BINDATA"/>
      </if>
      <include name="IDR_COMPONENTS_HTML" file="resources\components.html" flattenhtml="true" allowexternalscript="true" type="BINDATA" />
      <include name="IDR_COMPONENTS_JS" file="resources\components.js" type="BINDATA" />
      <if expr="enable_plugins">
        <include name="IDR_PDF_MANIFEST" file="resources\pdf\manifest.json" type="BINDATA" />
      </if>
      <if expr="is_win">
        <include name="IDR_PLUGIN_DB_JSON" file="resources\plugin_metadata\plugins_win.json" type="BINDATA" />
      </if>
      <if expr="is_macosx">
        <include name="IDR_PLUGIN_DB_JSON" file="resources\plugin_metadata\plugins_mac.json" type="BINDATA" />
      </if>
      <if expr="chromeos">
        <include name="IDR_ABOUT_VOICESEARCH_HTML" file="resources\about_voicesearch.html" flattenhtml="true" allowexternalscript="true" type="BINDATA" />
        <include name="IDR_ABOUT_VOICESEARCH_JS" file="resources\about_voicesearch.js" type="BINDATA" />
        <include name="IDR_PLUGIN_DB_JSON" file="resources\plugin_metadata\plugins_chromeos.json" type="BINDATA" />
      </if>
      <if expr="desktop_linux or (is_android and enable_plugins)">
        <include name="IDR_PLUGIN_DB_JSON" file="resources\plugin_metadata\plugins_linux.json" type="BINDATA" />
      </if>
      <if expr="is_android">
        <include name="IDR_POLICY_CSS" file="resources\policy_android.css" type="BINDATA"/>
      </if>
      <if expr="not is_android">
        <include name="IDR_POLICY_CSS" file="resources\policy.css" type="BINDATA"/>
      </if>
      <include name="IDR_POLICY_HTML" file="resources\policy.html" flattenhtml="true" allowexternalscript="true" type="BINDATA"/>
      <include name="IDR_POLICY_JS" file="resources\policy.js" type="BINDATA"/>
      <if expr="enable_print_preview">
        <include name="IDR_PRINT_PREVIEW_HTML" file="resources\print_preview\print_preview.html" flattenhtml="true" allowexternalscript="true" type="BINDATA" />
        <include name="IDR_PRINT_PREVIEW_JS" file="resources\print_preview\print_preview.js" flattenhtml="true" type="BINDATA" />
        <include name="IDR_PRINT_PREVIEW_PDF_PREVIEW_HTML" file="resources\print_preview\pdf_preview.html" flattenhtml="true" allowexternalscript="true" type="BINDATA" />
        <include name="IDR_PRINT_PREVIEW_IMAGES_PRINTER"
                 file="resources\print_preview\images\printer.png" type="BINDATA" />
        <include name="IDR_PRINT_PREVIEW_IMAGES_PRINTER_SHARED"
                 file="resources\print_preview\images\printer_shared.png" type="BINDATA" />
        <include name="IDR_PRINT_PREVIEW_IMAGES_GOOGLE_DOC"
                 file="resources\print_preview\images\google_doc.png" type="BINDATA" />
        <include name="IDR_PRINT_PREVIEW_IMAGES_PDF"
                 file="resources\print_preview\images\pdf.png" type="BINDATA" />
        <include name="IDR_PRINT_PREVIEW_IMAGES_THIRD_PARTY"
                 file="resources\print_preview\images\third_party.png" type="BINDATA" />
        <include name="IDR_PRINT_PREVIEW_IMAGES_THIRD_PARTY_FEDEX"
                 file="resources\print_preview\images\third_party_fedex.png" type="BINDATA" />
        <include name="IDR_PRINT_PREVIEW_IMAGES_MOBILE"
                 file="resources\print_preview\images\mobile.png" type="BINDATA" />
        <include name="IDR_PRINT_PREVIEW_IMAGES_MOBILE_SHARED"
                 file="resources\print_preview\images\mobile_shared.png" type="BINDATA" />
      </if>
      <include name="IDR_PROFILER_HTML" file="resources\profiler\profiler.html" flattenhtml="true" allowexternalscript="true" type="BINDATA" />
      <include name="IDR_PROFILER_JS" file="resources\profiler\profiler.js" flattenhtml="true" type="BINDATA" />
      <if expr="enable_settings_app">
        <include name="IDR_SETTINGS_APP_MANIFEST" file="resources\settings_app\manifest.json" type="BINDATA" />
      </if>
      <if expr="enable_google_now">
        <include name="IDR_GOOGLE_NOW_MANIFEST" file="resources\google_now\manifest.json" type="BINDATA" />
      </if>
      <include name="IDR_SITE_ENGAGEMENT_HTML" file="resources\engagement\site_engagement.html" flattenhtml="true" type="BINDATA" />
      <include name="IDR_SITE_ENGAGEMENT_JS" file="resources\engagement\site_engagement.js" flattenhtml="true" type="BINDATA" />
      <include name="IDR_SITE_ENGAGEMENT_MOJO_JS" file="${root_gen_dir}\chrome\browser\ui\webui\engagement\site_engagement.mojom.js" use_base_dir="false" type="BINDATA"/>
      <include name="IDR_SYNC_CONFIRMATION_CSS" file="resources\sync_confirmation\sync_confirmation.css" type="BINDATA" />
      <include name="IDR_SYNC_CONFIRMATION_HTML" file="resources\sync_confirmation\sync_confirmation.html" flattenhtml="true" allowexternalscript="true" type="BINDATA" />
      <include name="IDR_SYNC_CONFIRMATION_JS" file="resources\sync_confirmation\sync_confirmation.js" type="BINDATA" />
      <include name="IDR_UBER_HTML" file="resources\uber\uber.html" flattenhtml="true" type="BINDATA" />
      <include name="IDR_UBER_JS" file="resources\uber\uber.js" type="BINDATA" />
      <include name="IDR_UBER_FRAME_HTML" file="resources\uber\uber_frame.html" flattenhtml="true" type="BINDATA" />
      <include name="IDR_UBER_FRAME_JS" file="resources\uber\uber_frame.js" flattenhtml="true" type="BINDATA" />
      <include name="IDR_UBER_UTILS_JS" file="resources\uber\uber_utils.js" type="BINDATA" />
      <include name="IDR_USER_ACTIONS_HTML" file="resources\user_actions\user_actions.html" flattenhtml="true" allowexternalscript="true" type="BINDATA" />
      <include name="IDR_USER_ACTIONS_CSS" file="resources\user_actions\user_actions.css" type="BINDATA" />
      <include name="IDR_USER_ACTIONS_JS" file="resources\user_actions\user_actions.js" type="BINDATA" />
      <if expr="enable_webrtc">
        <include name="IDR_WEBRTC_LOGS_HTML" file="resources\media\webrtc_logs.html" flattenhtml="true" allowexternalscript="true" type="BINDATA" />
        <include name="IDR_WEBRTC_LOGS_JS" file="resources\media\webrtc_logs.js" type="BINDATA" />
      </if>
      <include name="IDR_WEBSTORE_MANIFEST" file="resources\webstore_app\manifest.json" type="BINDATA" />
      <include name="IDR_CRYPTOTOKEN_MANIFEST" file="resources\cryptotoken\manifest.json" type="BINDATA" />
      <include name="IDR_GAIA_AUTH_MANIFEST" file="resources\gaia_auth\manifest.json" type="BINDATA" />
      <if expr="chromeos">
        <include name="IDR_CHOOSE_MOBILE_NETWORK_HTML" file="resources\chromeos\choose_mobile_network.html" flattenhtml="true" allowexternalscript="true" type="BINDATA" />
        <include name="IDR_CHOOSE_MOBILE_NETWORK_JS" file="resources\chromeos\choose_mobile_network.js" type="BINDATA" />
        <include name="IDR_CROSH_BUILTIN_MANIFEST" file="resources\chromeos\crosh_builtin\manifest.json" type="BINDATA" />
        <include name="IDR_CRYPTOHOME_HTML" file="resources\chromeos\cryptohome.html" flattenhtml="true" type="BINDATA" />
        <include name="IDR_CRYPTOHOME_JS" file="resources\chromeos\cryptohome.js" type="BINDATA" />
        <!-- manifest file of Connectivity Diagnostics app -->
        <include name="IDR_CONNECTIVITY_DIAGNOSTICS_MANIFEST" file="resources\chromeos\connectivity_diagnostics\manifest.json" type="BINDATA" />
        <include name="IDR_CONNECTIVITY_DIAGNOSTICS_LAUNCHER_MANIFEST" file="resources\chromeos\connectivity_diagnostics_launcher\manifest.json" type="BINDATA" />
        <include name="IDR_DRIVE_INTERNALS_CSS" file="resources\chromeos\drive_internals.css" type="BINDATA" />
        <include name="IDR_DRIVE_INTERNALS_HTML" file="resources\chromeos\drive_internals.html" flattenhtml="true" type="BINDATA" />
        <include name="IDR_DRIVE_INTERNALS_JS" file="resources\chromeos\drive_internals.js" type="BINDATA" />
         <include name="IDR_GUEST_SESSION_TAB_HTML" file="resources\chromeos\guest_session_tab.html" flattenhtml="true" type="BINDATA" />
        <include name="IDR_KEYBOARD_OVERLAY_CSS" file="resources\chromeos\keyboard_overlay.css" flattenhtml="true" type="BINDATA" />
        <include name="IDR_KEYBOARD_OVERLAY_HTML" file="resources\chromeos\keyboard_overlay.html" flattenhtml="true" allowexternalscript="true" type="BINDATA" />
        <include name="IDR_KEYBOARD_OVERLAY_JS" file="resources\chromeos\keyboard_overlay.js" flattenhtml="true" type="BINDATA" />
        <include name="IDR_MOBILE_MANIFEST" file="resources\chromeos\mobile_app\manifest.json" type="BINDATA" />
        <include name="IDR_MOBILE_SETUP_PAGE_HTML" file="resources\chromeos\mobile_setup.html" flattenhtml="true" type="BINDATA" />
        <include name="IDR_MOBILE_SETUP_PORTAL_PAGE_HTML" file="resources\chromeos\mobile_setup_portal.html" flattenhtml="true" type="BINDATA" />
        <include name="IDR_NFC_DEBUG_HTML" file="resources\chromeos\nfc_debug.html" type="BINDATA" />
        <include name="IDR_NFC_DEBUG_CSS" file="resources\chromeos\nfc_debug.css" type="BINDATA" />
        <include name="IDR_NFC_DEBUG_JS" file="resources\chromeos\nfc_debug.js" type="BINDATA" />
        <include name="IDR_ECHO_MANIFEST" file="resources\chromeos\echo\manifest.json" type="BINDATA" />
        <include name="IDR_MERGE_SESSION_LOAD_HTML" file="resources\chromeos\merge_session_load.html" flattenhtml="true" type="BINDATA" />
        <include name="IDR_OS_CREDITS_HTML" file="resources\chromeos\about_os_credits.html" flattenhtml="true" type="BINDATA" />
        <include name="IDR_PROXY_SETTINGS_HTML" file="resources\chromeos\proxy_settings.html" flattenhtml="true" type="BINDATA" />
        <include name="IDR_CERT_MANAGER_DIALOG_HTML" file="resources\chromeos\certificate_manager_dialog.html" flattenhtml="true" type="BINDATA" />
        <include name="IDR_BLUETOOTH_PAIR_DEVICE_HTML" file="resources\chromeos\bluetooth_pair_device.html" flattenhtml="true" type="BINDATA" />
        <include name="IDR_SIM_UNLOCK_HTML" file="resources\chromeos\sim_unlock.html" flattenhtml="true" type="BINDATA" />
        <include name="IDR_SLOW_HTML" file="resources\chromeos\slow.html" flattenhtml="true" type="BINDATA" />
        <include name="IDR_SLOW_JS" file="resources\chromeos\slow.js" type="BINDATA" />
        <include name="IDR_HATS_HTML" file="resources\chromeos\hats\hats.html" flattenhtml="true" type="BINDATA" />
      </if>
      <if expr="chromeos">
        <include name="IDR_DEMO_APP_MANIFEST" file="resources\chromeos\demo_app\manifest.json" type="BINDATA" />
        <include name="IDR_WALLPAPERMANAGER_MANIFEST" file="resources\chromeos\wallpaper_manager\manifest.json" type="BINDATA" />
        <include name="IDR_FIRST_RUN_DIALOG_MANIFEST" file="resources\chromeos\first_run\app/manifest.json" type="BINDATA" />
        <include name="IDR_ARC_SUPPORT_MANIFEST" file="resources\chromeos\arc_support\manifest.json" type="BINDATA" />
      </if>
      <if expr="chromeos and _google_chrome">
        <include name="IDR_GENIUS_APP_MANIFEST" file="resources\chromeos\genius_app\manifest.json" type="BINDATA" />
        <include name="IDR_HELP_MANIFEST" file="resources\help_app\manifest.json" type="BINDATA" />
        <include name="IDR_QUICKOFFICE_MANIFEST" file="resources\chromeos\quickoffice\manifest.json" type="BINDATA" />
      </if>
      <if expr="is_win">
        <include name="IDR_SET_AS_DEFAULT_BROWSER_JS" file="resources\set_as_default_browser.js" flattenhtml="true" type="BINDATA" />
        <include name="IDR_SET_AS_DEFAULT_BROWSER_HTML" file="resources\set_as_default_browser.html" flattenhtml="true" allowexternalscript="true" type="BINDATA" />
      </if>
      <if expr="not is_android and not is_ios and not chromeos">
        <include name="IDR_USER_MANAGER_JS" file="resources\user_manager\user_manager.js" flattenhtml="true" type="BINDATA" />
        <include name="IDR_USER_MANAGER_HTML" file="resources\user_manager\user_manager.html" flattenhtml="true" allowexternalscript="true" type="BINDATA" />
      </if>
      <if expr="not is_android and not is_ios and not chromeos">
        <include name="IDR_MD_CONTROL_BAR_HTML" file="resources\md_user_manager\control_bar.html" type="BINDATA" />
        <include name="IDR_MD_CONTROL_BAR_JS" file="resources\md_user_manager\control_bar.js" type="BINDATA" />
        <include name="IDR_MD_CREATE_PROFILE_HTML" file="resources\md_user_manager\create_profile.html" type="BINDATA" />
        <include name="IDR_MD_CREATE_PROFILE_JS" file="resources\md_user_manager\create_profile.js" type="BINDATA" />
        <include name="IDR_MD_ERROR_DIALOG_HTML" file="resources\md_user_manager\error_dialog.html" type="BINDATA" />
        <include name="IDR_MD_ERROR_DIALOG_JS" file="resources\md_user_manager\error_dialog.js" type="BINDATA" />
        <include name="IDR_MD_IMPORT_SUPERVISED_USER_HTML" file="resources\md_user_manager\import_supervised_user.html" type="BINDATA" />
        <include name="IDR_MD_IMPORT_SUPERVISED_USER_JS" file="resources\md_user_manager\import_supervised_user.js" type="BINDATA" />
        <include name="IDR_MD_PROFILE_BROWSER_PROXY_HTML" file="resources\md_user_manager\profile_browser_proxy.html" type="BINDATA" />
        <include name="IDR_MD_PROFILE_BROWSER_PROXY_JS" file="resources\md_user_manager\profile_browser_proxy.js" type="BINDATA" />
        <include name="IDR_MD_SUPERVISED_USER_CREATE_CONFIRM_HTML" file="resources\md_user_manager\supervised_user_create_confirm.html" type="BINDATA" />
        <include name="IDR_MD_SUPERVISED_USER_CREATE_CONFIRM_JS" file="resources\md_user_manager\supervised_user_create_confirm.js" type="BINDATA" />
        <include name="IDR_MD_SUPERVISED_USER_LEARN_MORE_HTML" file="resources\md_user_manager\supervised_user_learn_more.html" type="BINDATA" />
        <include name="IDR_MD_SUPERVISED_USER_LEARN_MORE_JS" file="resources\md_user_manager\supervised_user_learn_more.js" type="BINDATA" />
        <include name="IDR_MD_USER_MANAGER_DIALOG_HTML" file="resources\md_user_manager\user_manager_dialog.html" allowexternalscript="true" type="BINDATA" />
        <include name="IDR_MD_USER_MANAGER_DIALOG_JS" file="resources\md_user_manager\user_manager_dialog.js" type="BINDATA" />
        <include name="IDR_MD_USER_MANAGER_HTML" file="resources\md_user_manager\user_manager.html" flattenhtml="true" allowexternalscript="true" type="BINDATA" />
        <include name="IDR_MD_USER_MANAGER_JS" file="resources\md_user_manager\user_manager.js" flattenhtml="true" type="BINDATA" />
        <include name="IDR_MD_USER_MANAGER_ICONS_HTML" file="resources\md_user_manager\icons.html" type="BINDATA" />
        <include name="IDR_MD_USER_MANAGER_PAGES_HTML" file="resources\md_user_manager\user_manager_pages.html" type="BINDATA" />
        <include name="IDR_MD_USER_MANAGER_PAGES_JS" file="resources\md_user_manager\user_manager_pages.js" type="BINDATA" />
        <include name="IDR_MD_USER_MANAGER_SHARED_STYLES_HTML" file="resources\md_user_manager\shared_styles.html" flattenhtml="true" type="BINDATA" />
        <include name="IDR_MD_USER_MANAGER_STRINGS_HTML" file="resources\md_user_manager\strings.html" type="BINDATA" />
        <include name="IDR_MD_USER_MANAGER_TUTORIAL_HTML" file="resources\md_user_manager\user_manager_tutorial.html" type="BINDATA" />
        <include name="IDR_MD_USER_MANAGER_TUTORIAL_JS" file="resources\md_user_manager\user_manager_tutorial.js" type="BINDATA" />
      </if>
      <include name="IDR_PROFILE_SIGNIN_CONFIRMATION_HTML" file="resources\profile_signin_confirmation.html" type="BINDATA" />
      <include name="IDR_PROFILE_SIGNIN_CONFIRMATION_JS" file="resources\profile_signin_confirmation.js" type="BINDATA" />
      <include name="IDR_PROFILE_SIGNIN_CONFIRMATION_CSS" file="resources\profile_signin_confirmation.css" type="BINDATA" />
      <if expr="is_macosx">
        <include name="IDR_RECENTLY_CLOSED_WINDOW" file="resources\ntp4\images\closed_window.png" type="BINDATA" />
      </if>
      <if expr="not is_android">
        <include name="IDR_IDENTITY_INTERNALS_HTML" file="resources\identity_internals.html" type="BINDATA" />
        <include name="IDR_IDENTITY_INTERNALS_CSS" file="resources\identity_internals.css" type="BINDATA" />
        <include name="IDR_IDENTITY_INTERNALS_JS" file="resources\identity_internals.js" type="BINDATA" />
      </if>
      <include name="IDR_DEVICE_LOG_UI_HTML" file="resources\device_log_ui\device_log_ui.html" type="BINDATA" />
      <include name="IDR_DEVICE_LOG_UI_JS" file="resources\device_log_ui\device_log_ui.js" type="BINDATA" />
      <include name="IDR_DEVICE_LOG_UI_CSS" file="resources\device_log_ui\device_log_ui.css" type="BINDATA" />
      <if expr="chromeos">
        <include name="IDR_NETWORK_UI_HTML" file="resources\chromeos\network_ui\network_ui.html" type="BINDATA" />
        <include name="IDR_NETWORK_UI_JS" file="resources\chromeos\network_ui\network_ui.js" type="BINDATA" />
        <include name="IDR_NETWORK_UI_CSS" file="resources\chromeos\network_ui\network_ui.css" type="BINDATA" />
      </if>
      <if expr="_google_chrome">
        <include name="IDR_PREF_HASH_SEED_BIN" file="resources\settings_internal\pref_hash_seed.bin" type="BINDATA" />
        <include name="IDR_ADDITIONAL_MODULE_IDS" file="${additional_modules_list_file}" use_base_dir="false" type="BINDATA" />
      </if>
      <if expr="chromeos">
        <include name="IDR_SOUND_STARTUP_WAV" file="resources\chromeos\sounds\startup.wav" type="BINDATA" />
        <include name="IDR_SOUND_STARTUP2_WAV" file="resources\chromeos\sounds\startup2.wav" type="BINDATA" />
        <include name="IDR_SOUND_LOCK_WAV" file="resources\chromeos\sounds\lock.wav" type="BINDATA" />
        <include name="IDR_SOUND_UNLOCK_WAV" file="resources\chromeos\sounds\unlock.wav" type="BINDATA" />
        <include name="IDR_SOUND_SHUTDOWN_WAV" file="resources\chromeos\sounds\shutdown.wav" type="BINDATA" />
        <include name="IDR_SOUND_SPOKEN_FEEDBACK_ENABLED_WAV" file="resources\chromeos\sounds\spoken_feedback_enabled.wav" type="BINDATA" />
        <include name="IDR_SOUND_SPOKEN_FEEDBACK_DISABLED_WAV" file="resources\chromeos\sounds\spoken_feedback_disabled.wav" type="BINDATA" />
        <include name="IDR_SOUND_VOLUME_ADJUST_WAV" file="resources\chromeos\sounds\volume_adjust.wav" type="BINDATA" />
        <include name="IDR_SOUND_CAMERA_SNAP_WAV" file="resources\chromeos\sounds\camera_snap.wav" type="BINDATA" />
        <include name="IDR_SOUND_OBJECT_DELETE_WAV" file="resources\chromeos\sounds\object_delete.wav" type="BINDATA" />
        <include name="IDR_SOUND_PASSTHROUGH_WAV" file="resources\chromeos\sounds\earcons\passthrough.wav" type="BINDATA" />
        <include name="IDR_SOUND_EXIT_SCREEN_WAV" file="resources\chromeos\sounds\earcons\exit_screen.wav" type="BINDATA" />
        <include name="IDR_SOUND_ENTER_SCREEN_WAV" file="resources\chromeos\sounds\earcons\enter_screen.wav" type="BINDATA" />
      </if>
      <if expr="chromeos">
        <include name="IDR_ABOUT_POWER_HTML" file="resources\chromeos\power.html" type="BINDATA" />
        <include name="IDR_ABOUT_POWER_JS" file="resources\chromeos\power.js" type="BINDATA" />
        <include name="IDR_ABOUT_POWER_CSS" file="resources\chromeos\power.css" type="BINDATA" />
        <include name="IDR_DEVICE_EMULATOR_HTML" file="resources\chromeos\emulator\device_emulator.html" type="BINDATA" />
        <include name="IDR_DEVICE_EMULATOR_AUDIO_SETTINGS_HTML" file="resources\chromeos\emulator\audio_settings.html" type="BINDATA" />
        <include name="IDR_DEVICE_EMULATOR_AUDIO_SETTINGS_JS" file="resources\chromeos\emulator\audio_settings.js" type="BINDATA" />
        <include name="IDR_DEVICE_EMULATOR_BATTERY_SETTINGS_HTML" file="resources\chromeos\emulator\battery_settings.html" type="BINDATA" />
        <include name="IDR_DEVICE_EMULATOR_BATTERY_SETTINGS_JS" file="resources\chromeos\emulator\battery_settings.js" type="BINDATA" />
        <include name="IDR_DEVICE_EMULATOR_BLUETOOTH_SETTINGS_HTML" file="resources\chromeos\emulator\bluetooth_settings.html" type="BINDATA" />
        <include name="IDR_DEVICE_EMULATOR_BLUETOOTH_SETTINGS_JS" file="resources\chromeos\emulator\bluetooth_settings.js" type="BINDATA" />
        <include name="IDR_DEVICE_EMULATOR_ICONS_HTML" file="resources\chromeos\emulator\icons.html" type="BINDATA" />
        <include name="IDR_DEVICE_EMULATOR_PAGES_HTML" file="resources\chromeos\emulator\device_emulator_pages.html" type="BINDATA" />
        <include name="IDR_DEVICE_EMULATOR_PAGES_JS" file="resources\chromeos\emulator\device_emulator_pages.js" type="BINDATA" />
        <include name="IDR_DEVICE_EMULATOR_SHARED_STYLES_HTML" file="resources\chromeos\emulator\shared_styles.html" type="BINDATA" />
      </if>
      <include name="IDR_EASY_UNLOCK_MANIFEST" file="resources\easy_unlock\manifest.json" type="BINDATA" />
      <include name="IDR_EASY_UNLOCK_MANIFEST_SIGNIN" file="resources\easy_unlock\manifest_signin.json" type="BINDATA" />
      <if expr="chromeos">
        <include name="IDR_SET_TIME_HTML" file="resources\chromeos\set_time.html" type="BINDATA" />
        <include name="IDR_SET_TIME_CSS" file="resources\chromeos\set_time.css" type="BINDATA" />
        <include name="IDR_SET_TIME_JS" file="resources\chromeos\set_time.js" type="BINDATA" />
      </if>
      <if expr="chromeos">
        <if expr="_google_chrome">
          <include name="IDR_GOOGLE_XKB_MANIFEST" file="resources\chromeos\input_method\google_xkb_manifest.json" type="BINDATA" />
          <include name="IDR_GOOGLE_INPUT_TOOLS_MANIFEST" file="resources\chromeos\input_method\google_input_tools_manifest.json" type="BINDATA" />
        </if>
        <if expr="not _google_chrome">
          <include name="IDR_XKB_MANIFEST" file="resources\chromeos\input_method\xkb_manifest.json" type="BINDATA" />
          <include name="IDR_M17N_MANIFEST" file="resources\chromeos\input_method\m17n_manifest.json" type="BINDATA" />
          <include name="IDR_PINYIN_MANIFEST" file="resources\chromeos\input_method\pinyin_manifest.json" type="BINDATA" />
          <include name="IDR_ZHUYIN_MANIFEST" file="resources\chromeos\input_method\zhuyin_manifest.json" type="BINDATA" />
          <include name="IDR_CANGJIE_MANIFEST" file="resources\chromeos\input_method\cangjie_manifest.json" type="BINDATA" />
          <include name="IDR_MOZC_MANIFEST" file="resources\chromeos\input_method\mozc_manifest.json" type="BINDATA" />
          <include name="IDR_HANGUL_MANIFEST" file="resources\chromeos\input_method\hangul_manifest.json" type="BINDATA" />
        </if>
        <include name="IDR_BRAILLE_MANIFEST" file="resources\chromeos\braille_ime\manifest.json" type="BINDATA" />
      </if>
      <include name="IDR_WHISPERNET_PROXY_MANIFEST" file="resources\whispernet_proxy\manifest.json" type="BINDATA" />
      <if expr="enable_media_router">
        <part file="media_router_resources.grdp" />
      </if>
      <if expr="enable_media_router and (chromeos or is_win or is_macosx)">
        <include name="IDR_CAST_HTML" file="resources\cast\cast.html" type="BINDATA" />
        <include name="IDR_CAST_CSS" file="resources\cast\cast.css" type="BINDATA" />
        <include name="IDR_CAST_JS" file="resources\cast\cast.js" type="BINDATA" />
        <include name="IDR_CAST_FAVICON" file="resources\cast\cast_favicon.ico" type="BINDATA" />
      </if>
      <if expr="not is_android and not is_ios and not chromeos">
        <include name="IDR_IME_WINDOW_CLOSE" file="resources\input_ime\ime_window_close.png" type="BINDATA" />
        <include name="IDR_IME_WINDOW_CLOSE_C" file="resources\input_ime\ime_window_close_click.png" type="BINDATA" />
        <include name="IDR_IME_WINDOW_CLOSE_H" file="resources\input_ime\ime_window_close_hover.png" type="BINDATA" />
      </if>
    </includes>
  </release>
</grit>
